\relax 
\providecommand\hyper@newdestlabel[2]{}
\providecommand\HyperFirstAtBeginDocument{\AtBeginDocument}
\HyperFirstAtBeginDocument{\ifx\hyper@anchor\@undefined
\global\let\oldcontentsline\contentsline
\gdef\contentsline#1#2#3#4{\oldcontentsline{#1}{#2}{#3}}
\global\let\oldnewlabel\newlabel
\gdef\newlabel#1#2{\newlabelxx{#1}#2}
\gdef\newlabelxx#1#2#3#4#5#6{\oldnewlabel{#1}{{#2}{#3}}}
\AtEndDocument{\ifx\hyper@anchor\@undefined
\let\contentsline\oldcontentsline
\let\newlabel\oldnewlabel
\fi}
\fi}
\global\let\hyper@last\relax 
\gdef\HyperFirstAtBeginDocument#1{#1}
\providecommand\HyField@AuxAddToFields[1]{}
\providecommand\HyField@AuxAddToCoFields[2]{}
\@writefile{nav}{\headcommand {\slideentry {0}{0}{1}{1/1}{}{0}}}
\@writefile{nav}{\headcommand {\beamer@framepages {1}{1}}}
\newlabel{Table of content<1>}{{2}{2}{}{Doc-Start}{}}
\@writefile{snm}{\beamer@slide {Table of content<1>}{2}}
\newlabel{Table of content}{{2}{2}{}{Doc-Start}{}}
\@writefile{snm}{\beamer@slide {Table of content}{2}}
\@writefile{nav}{\headcommand {\slideentry {0}{0}{2}{2/2}{}{0}}}
\@writefile{nav}{\headcommand {\beamer@framepages {2}{2}}}
\@writefile{toc}{\beamer@sectionintoc {1}{Introduction}{3}{0}{1}}
\@writefile{nav}{\headcommand {\beamer@sectionpages {1}{2}}}
\@writefile{nav}{\headcommand {\beamer@subsectionpages {1}{2}}}
\@writefile{nav}{\headcommand {\sectionentry {1}{Introduction}{3}{Introduction}{0}}}
\newlabel{sec:Introduction}{{1}{3}{Introduction}{Doc-Start}{}}
\@writefile{snm}{\beamer@slide {sec:Introduction}{3}}
\@writefile{toc}{\beamer@subsectionintoc {1}{1}{Top Tagging }{3}{0}{1}}
\@writefile{nav}{\headcommand {\beamer@subsectionpages {3}{2}}}
\@writefile{nav}{\headcommand {\beamer@subsectionentry {0}{1}{1}{3}{Top Tagging }}}
\newlabel{sec:Top Tagging}{{1}{3}{Top Tagging}{Doc-Start}{}}
\@writefile{snm}{\beamer@slide {sec:Top Tagging}{3}}
\newlabel{Top Tagging<1>}{{3}{3}{Top Tagging}{Doc-Start}{}}
\@writefile{snm}{\beamer@slide {Top Tagging<1>}{3}}
\newlabel{Top Tagging}{{3}{3}{Top Tagging}{Doc-Start}{}}
\@writefile{snm}{\beamer@slide {Top Tagging}{3}}
\newlabel{fig:xoneqcdpng}{{3}{3}{Top Tagging}{Doc-Start}{}}
\@writefile{snm}{\beamer@slide {fig:xoneqcdpng}{3}}
\@writefile{nav}{\headcommand {\slideentry {1}{1}{1}{3/3}{Top Tagging }{0}}}
\@writefile{nav}{\headcommand {\beamer@framepages {3}{3}}}
\newlabel{Finding new Physics at the LHC<1>}{{4}{4}{Top Tagging}{Doc-Start}{}}
\@writefile{snm}{\beamer@slide {Finding new Physics at the LHC<1>}{4}}
\newlabel{Finding new Physics at the LHC}{{4}{4}{Top Tagging}{Doc-Start}{}}
\@writefile{snm}{\beamer@slide {Finding new Physics at the LHC}{4}}
\@writefile{nav}{\headcommand {\slideentry {1}{1}{2}{4/4}{Top Tagging }{0}}}
\@writefile{nav}{\headcommand {\beamer@framepages {4}{4}}}
\newlabel{fig:ttot}{{5}{5}{Top Tagging}{Doc-Start}{}}
\@writefile{snm}{\beamer@slide {fig:ttot}{5}}
\@writefile{nav}{\headcommand {\slideentry {1}{1}{3}{5/5}{Top Tagging }{0}}}
\@writefile{nav}{\headcommand {\beamer@framepages {5}{5}}}
\@writefile{nav}{\headcommand {\slideentry {1}{1}{4}{6/6}{Top Tagging }{0}}}
\@writefile{nav}{\headcommand {\beamer@framepages {6}{6}}}
\@writefile{toc}{\beamer@subsectionintoc {1}{2}{Neuronal Networks }{7}{0}{1}}
\@writefile{nav}{\headcommand {\beamer@subsectionpages {3}{6}}}
\@writefile{nav}{\headcommand {\beamer@subsectionentry {0}{1}{2}{7}{Neuronal Networks }}}
\newlabel{sec:Neuronal Networks}{{2}{7}{Neuronal Networks}{Doc-Start}{}}
\@writefile{snm}{\beamer@slide {sec:Neuronal Networks}{7}}
\newlabel{fig:mmtq02imgswithout_fitpdf}{{7}{7}{Neuronal Networks}{Doc-Start}{}}
\@writefile{snm}{\beamer@slide {fig:mmtq02imgswithout_fitpdf}{7}}
\@writefile{nav}{\headcommand {\slideentry {1}{2}{1}{7/7}{Neuronal Networks }{0}}}
\@writefile{nav}{\headcommand {\beamer@framepages {7}{7}}}
\newlabel{fig:mmtq02imgslinearpdf}{{8}{8}{Neuronal Networks}{Doc-Start}{}}
\@writefile{snm}{\beamer@slide {fig:mmtq02imgslinearpdf}{8}}
\@writefile{nav}{\headcommand {\slideentry {1}{2}{2}{8/8}{Neuronal Networks }{0}}}
\@writefile{nav}{\headcommand {\beamer@framepages {8}{8}}}
\newlabel{fig:mmtqnnpicsrsimple_neuronal_netpng}{{9}{9}{Neuronal Networks}{Doc-Start}{}}
\@writefile{snm}{\beamer@slide {fig:mmtqnnpicsrsimple_neuronal_netpng}{9}}
\@writefile{nav}{\headcommand {\slideentry {1}{2}{3}{9/9}{Neuronal Networks }{0}}}
\@writefile{nav}{\headcommand {\beamer@framepages {9}{9}}}
\newlabel{fig:mmtq02imgsneuronal_networkpdf}{{10}{10}{Neuronal Networks}{Doc-Start}{}}
\@writefile{snm}{\beamer@slide {fig:mmtq02imgsneuronal_networkpdf}{10}}
\@writefile{nav}{\headcommand {\slideentry {1}{2}{4}{10/10}{Neuronal Networks }{0}}}
\@writefile{nav}{\headcommand {\beamer@framepages {10}{10}}}
\@writefile{toc}{\beamer@subsectionintoc {1}{3}{Autoencoder }{11}{0}{1}}
\@writefile{nav}{\headcommand {\beamer@subsectionpages {7}{10}}}
\@writefile{nav}{\headcommand {\beamer@subsectionentry {0}{1}{3}{11}{Autoencoder }}}
\newlabel{sec:Autoencoder}{{3}{11}{Autoencoder}{Doc-Start}{}}
\@writefile{snm}{\beamer@slide {sec:Autoencoder}{11}}
\newlabel{fig:mmtqnnpicsrsimple_autoencoderpng}{{11}{11}{Autoencoder}{Doc-Start}{}}
\@writefile{snm}{\beamer@slide {fig:mmtqnnpicsrsimple_autoencoderpng}{11}}
\@writefile{nav}{\headcommand {\slideentry {1}{3}{1}{11/11}{Autoencoder }{0}}}
\@writefile{nav}{\headcommand {\beamer@framepages {11}{11}}}
\newlabel{fig:mmtq02imgsauto_encoderpdf}{{12}{12}{Autoencoder}{Doc-Start}{}}
\@writefile{snm}{\beamer@slide {fig:mmtq02imgsauto_encoderpdf}{12}}
\@writefile{nav}{\headcommand {\slideentry {1}{3}{2}{12/12}{Autoencoder }{0}}}
\@writefile{nav}{\headcommand {\beamer@framepages {12}{12}}}
\newlabel{fig:compare}{{13}{13}{Autoencoder}{Doc-Start}{}}
\@writefile{snm}{\beamer@slide {fig:compare}{13}}
\@writefile{nav}{\headcommand {\slideentry {1}{3}{3}{13/13}{Autoencoder }{0}}}
\@writefile{nav}{\headcommand {\beamer@framepages {13}{13}}}
\newlabel{fig:xrecqualpng}{{14}{14}{Autoencoder}{Doc-Start}{}}
\@writefile{snm}{\beamer@slide {fig:xrecqualpng}{14}}
\@writefile{nav}{\headcommand {\slideentry {1}{3}{4}{14/14}{Autoencoder }{0}}}
\@writefile{nav}{\headcommand {\beamer@framepages {14}{14}}}
\@writefile{toc}{\beamer@subsectionintoc {1}{4}{Graphs }{15}{0}{1}}
\@writefile{nav}{\headcommand {\beamer@subsectionpages {11}{14}}}
\@writefile{nav}{\headcommand {\beamer@subsectionentry {0}{1}{4}{15}{Graphs }}}
\newlabel{sec:Graphs}{{4}{15}{Graphs}{Doc-Start}{}}
\@writefile{snm}{\beamer@slide {sec:Graphs}{15}}
\newlabel{fig:dia3}{{1}{15}{Graphs}{Doc-Start}{}}
\@writefile{snm}{\beamer@slide {fig:dia3}{15}}
\@writefile{nav}{\headcommand {\slideentry {1}{4}{1}{15/15}{Graphs }{0}}}
\@writefile{nav}{\headcommand {\beamer@framepages {15}{15}}}
\@writefile{nav}{\headcommand {\slideentry {1}{4}{2}{16/16}{Graphs }{0}}}
\@writefile{nav}{\headcommand {\beamer@framepages {16}{16}}}
\newlabel{fig:dia7}{{2}{17}{Graphs}{Doc-Start}{}}
\@writefile{snm}{\beamer@slide {fig:dia7}{17}}
\newlabel{fig:dia8}{{3}{17}{Graphs}{Doc-Start}{}}
\@writefile{snm}{\beamer@slide {fig:dia8}{17}}
\@writefile{nav}{\headcommand {\slideentry {1}{4}{3}{17/17}{Graphs }{0}}}
\@writefile{nav}{\headcommand {\beamer@framepages {17}{17}}}
\newlabel{Why Graph Networks?<1>}{{18}{18}{Graphs}{Doc-Start}{}}
\@writefile{snm}{\beamer@slide {Why Graph Networks?<1>}{18}}
\newlabel{Why Graph Networks?}{{18}{18}{Graphs}{Doc-Start}{}}
\@writefile{snm}{\beamer@slide {Why Graph Networks?}{18}}
\@writefile{nav}{\headcommand {\slideentry {1}{4}{4}{18/18}{Graphs }{0}}}
\@writefile{nav}{\headcommand {\beamer@framepages {18}{18}}}
\@writefile{toc}{\beamer@subsectionintoc {1}{5}{Graph Autoencoder }{19}{0}{1}}
\@writefile{nav}{\headcommand {\beamer@subsectionpages {15}{18}}}
\@writefile{nav}{\headcommand {\beamer@subsectionentry {0}{1}{5}{19}{Graph Autoencoder }}}
\newlabel{sec:Graph Autoencoder}{{5}{19}{Graph Autoencoder}{Doc-Start}{}}
\@writefile{snm}{\beamer@slide {sec:Graph Autoencoder}{19}}
\@writefile{nav}{\headcommand {\slideentry {1}{5}{1}{19/19}{Graph Autoencoder }{0}}}
\@writefile{nav}{\headcommand {\beamer@framepages {19}{19}}}
\newlabel{Going from a big graph to a small graph<1>}{{20}{20}{Graph Autoencoder}{Doc-Start}{}}
\@writefile{snm}{\beamer@slide {Going from a big graph to a small graph<1>}{20}}
\newlabel{Going from a big graph to a small graph}{{20}{20}{Graph Autoencoder}{Doc-Start}{}}
\@writefile{snm}{\beamer@slide {Going from a big graph to a small graph}{20}}
\@writefile{nav}{\headcommand {\slideentry {1}{5}{2}{20/20}{Graph Autoencoder }{0}}}
\@writefile{nav}{\headcommand {\beamer@framepages {20}{20}}}
\newlabel{fig:xdenseencodepng}{{21}{21}{Graph Autoencoder}{Doc-Start}{}}
\@writefile{snm}{\beamer@slide {fig:xdenseencodepng}{21}}
\newlabel{fig:xgraphencodepng}{{21}{21}{Graph Autoencoder}{Doc-Start}{}}
\@writefile{snm}{\beamer@slide {fig:xgraphencodepng}{21}}
\@writefile{nav}{\headcommand {\slideentry {1}{5}{3}{21/21}{Graph Autoencoder }{0}}}
\@writefile{nav}{\headcommand {\beamer@framepages {21}{21}}}
\newlabel{from a big graph to a small graph<1>}{{22}{22}{Graph Autoencoder}{Doc-Start}{}}
\@writefile{snm}{\beamer@slide {from a big graph to a small graph<1>}{22}}
\newlabel{from a big graph to a small graph}{{22}{22}{Graph Autoencoder}{Doc-Start}{}}
\@writefile{snm}{\beamer@slide {from a big graph to a small graph}{22}}
\newlabel{fig:abiaa}{{22}{22}{Graph Autoencoder}{Doc-Start}{}}
\@writefile{snm}{\beamer@slide {fig:abiaa}{22}}
\@writefile{nav}{\headcommand {\slideentry {1}{5}{4}{22/22}{Graph Autoencoder }{0}}}
\@writefile{nav}{\headcommand {\beamer@framepages {22}{22}}}
\newlabel{from a small graph to a big graph<1>}{{23}{23}{Graph Autoencoder}{Doc-Start}{}}
\@writefile{snm}{\beamer@slide {from a small graph to a big graph<1>}{23}}
\newlabel{from a small graph to a big graph}{{23}{23}{Graph Autoencoder}{Doc-Start}{}}
\@writefile{snm}{\beamer@slide {from a small graph to a big graph}{23}}
\newlabel{fig:abibb}{{23}{23}{Graph Autoencoder}{Doc-Start}{}}
\@writefile{snm}{\beamer@slide {fig:abibb}{23}}
\@writefile{nav}{\headcommand {\slideentry {1}{5}{5}{23/23}{Graph Autoencoder }{0}}}
\@writefile{nav}{\headcommand {\beamer@framepages {23}{23}}}
\@writefile{toc}{\beamer@subsectionintoc {1}{6}{Setup }{24}{0}{1}}
\@writefile{nav}{\headcommand {\beamer@subsectionpages {19}{23}}}
\@writefile{nav}{\headcommand {\beamer@subsectionentry {0}{1}{6}{24}{Setup }}}
\newlabel{sec:Setup}{{6}{24}{Setup}{Doc-Start}{}}
\@writefile{snm}{\beamer@slide {sec:Setup}{24}}
\@writefile{nav}{\headcommand {\slideentry {1}{6}{1}{24/24}{Setup }{0}}}
\@writefile{nav}{\headcommand {\beamer@framepages {24}{24}}}
\newlabel{setup_0<1>}{{25}{25}{Setup}{Doc-Start}{}}
\@writefile{snm}{\beamer@slide {setup_0<1>}{25}}
\newlabel{setup_0}{{25}{25}{Setup}{Doc-Start}{}}
\@writefile{snm}{\beamer@slide {setup_0}{25}}
\newlabel{fig:history200}{{25}{25}{Setup}{Doc-Start}{}}
\@writefile{snm}{\beamer@slide {fig:history200}{25}}
\@writefile{nav}{\headcommand {\slideentry {1}{6}{2}{25/25}{Setup }{0}}}
\@writefile{nav}{\headcommand {\beamer@framepages {25}{25}}}
\@writefile{toc}{\beamer@sectionintoc {2}{Results}{26}{0}{2}}
\@writefile{nav}{\headcommand {\beamer@sectionpages {3}{25}}}
\@writefile{nav}{\headcommand {\beamer@subsectionpages {24}{25}}}
\@writefile{nav}{\headcommand {\sectionentry {2}{Results}{26}{Results}{0}}}
\newlabel{sec:Results}{{2}{26}{Results}{Doc-Start}{}}
\@writefile{snm}{\beamer@slide {sec:Results}{26}}
\newlabel{results_0<1>}{{26}{26}{Results}{Doc-Start}{}}
\@writefile{snm}{\beamer@slide {results_0<1>}{26}}
\newlabel{results_0}{{26}{26}{Results}{Doc-Start}{}}
\@writefile{snm}{\beamer@slide {results_0}{26}}
\newlabel{fig:simpledraw200}{{26}{26}{Results}{Doc-Start}{}}
\@writefile{snm}{\beamer@slide {fig:simpledraw200}{26}}
\@writefile{nav}{\headcommand {\slideentry {2}{0}{1}{26/26}{}{0}}}
\@writefile{nav}{\headcommand {\beamer@framepages {26}{26}}}
\newlabel{results_1<1>}{{27}{27}{Results}{Doc-Start}{}}
\@writefile{snm}{\beamer@slide {results_1<1>}{27}}
\newlabel{results_1}{{27}{27}{Results}{Doc-Start}{}}
\@writefile{snm}{\beamer@slide {results_1}{27}}
\newlabel{fig:rec200}{{27}{27}{Results}{Doc-Start}{}}
\@writefile{snm}{\beamer@slide {fig:rec200}{27}}
\@writefile{nav}{\headcommand {\slideentry {2}{0}{2}{27/27}{}{0}}}
\@writefile{nav}{\headcommand {\beamer@framepages {27}{27}}}
\newlabel{results_2<1>}{{28}{28}{Results}{Doc-Start}{}}
\@writefile{snm}{\beamer@slide {results_2<1>}{28}}
\newlabel{results_2}{{28}{28}{Results}{Doc-Start}{}}
\@writefile{snm}{\beamer@slide {results_2}{28}}
\newlabel{fig:roc200}{{28}{28}{Results}{Doc-Start}{}}
\@writefile{snm}{\beamer@slide {fig:roc200}{28}}
\@writefile{nav}{\headcommand {\slideentry {2}{0}{3}{28/28}{}{0}}}
\@writefile{nav}{\headcommand {\beamer@framepages {28}{28}}}
\@writefile{toc}{\beamer@subsectionintoc {2}{1}{Problems when scaling }{29}{0}{2}}
\@writefile{nav}{\headcommand {\beamer@subsectionpages {26}{28}}}
\@writefile{nav}{\headcommand {\beamer@subsectionentry {0}{2}{1}{29}{Problems when scaling }}}
\newlabel{sec:Problems when scaling}{{1}{29}{Problems when scaling}{Doc-Start}{}}
\@writefile{snm}{\beamer@slide {sec:Problems when scaling}{29}}
\newlabel{scale_0<1>}{{29}{29}{Problems when scaling}{Doc-Start}{}}
\@writefile{snm}{\beamer@slide {scale_0<1>}{29}}
\newlabel{scale_0}{{29}{29}{Problems when scaling}{Doc-Start}{}}
\@writefile{snm}{\beamer@slide {scale_0}{29}}
\newlabel{fig:trivscale}{{29}{29}{Problems when scaling}{Doc-Start}{}}
\@writefile{snm}{\beamer@slide {fig:trivscale}{29}}
\@writefile{nav}{\headcommand {\slideentry {2}{1}{1}{29/29}{Problems when scaling }{0}}}
\@writefile{nav}{\headcommand {\beamer@framepages {29}{29}}}
\newlabel{scale_1<1>}{{30}{30}{Problems when scaling}{Doc-Start}{}}
\@writefile{snm}{\beamer@slide {scale_1<1>}{30}}
\newlabel{scale_1}{{30}{30}{Problems when scaling}{Doc-Start}{}}
\@writefile{snm}{\beamer@slide {scale_1}{30}}
\newlabel{fig:simptriv00}{{30}{30}{Problems when scaling}{Doc-Start}{}}
\@writefile{snm}{\beamer@slide {fig:simptriv00}{30}}
\@writefile{nav}{\headcommand {\slideentry {2}{1}{2}{30/30}{Problems when scaling }{0}}}
\@writefile{nav}{\headcommand {\beamer@framepages {30}{30}}}
\newlabel{scale_2<1>}{{31}{31}{Problems when scaling}{Doc-Start}{}}
\@writefile{snm}{\beamer@slide {scale_2<1>}{31}}
\newlabel{scale_2}{{31}{31}{Problems when scaling}{Doc-Start}{}}
\@writefile{snm}{\beamer@slide {scale_2}{31}}
\newlabel{fig:simptriv30}{{31}{31}{Problems when scaling}{Doc-Start}{}}
\@writefile{snm}{\beamer@slide {fig:simptriv30}{31}}
\@writefile{nav}{\headcommand {\slideentry {2}{1}{3}{31/31}{Problems when scaling }{0}}}
\@writefile{nav}{\headcommand {\beamer@framepages {31}{31}}}
\@writefile{toc}{\beamer@subsectionintoc {2}{2}{Problems by triviality }{32}{0}{2}}
\@writefile{nav}{\headcommand {\beamer@subsectionpages {29}{31}}}
\@writefile{nav}{\headcommand {\beamer@subsectionentry {0}{2}{2}{32}{Problems by triviality }}}
\newlabel{sec:Problems by triviality}{{2}{32}{Problems by triviality}{Doc-Start}{}}
\@writefile{snm}{\beamer@slide {sec:Problems by triviality}{32}}
\newlabel{simpl_0<1>}{{32}{32}{Problems by triviality}{Doc-Start}{}}
\@writefile{snm}{\beamer@slide {simpl_0<1>}{32}}
\newlabel{simpl_0}{{32}{32}{Problems by triviality}{Doc-Start}{}}
\@writefile{snm}{\beamer@slide {simpl_0}{32}}
\newlabel{fig:meanangle4}{{32}{32}{Problems by triviality}{Doc-Start}{}}
\@writefile{snm}{\beamer@slide {fig:meanangle4}{32}}
\@writefile{nav}{\headcommand {\slideentry {2}{2}{1}{32/32}{Problems by triviality }{0}}}
\@writefile{nav}{\headcommand {\beamer@framepages {32}{32}}}
\newlabel{simpl_1<1>}{{33}{33}{Problems by triviality}{Doc-Start}{}}
\@writefile{snm}{\beamer@slide {simpl_1<1>}{33}}
\newlabel{simpl_1}{{33}{33}{Problems by triviality}{Doc-Start}{}}
\@writefile{snm}{\beamer@slide {simpl_1}{33}}
\newlabel{fig:simponez}{{33}{33}{Problems by triviality}{Doc-Start}{}}
\@writefile{snm}{\beamer@slide {fig:simponez}{33}}
\@writefile{nav}{\headcommand {\slideentry {2}{2}{2}{33/33}{Problems by triviality }{0}}}
\@writefile{nav}{\headcommand {\beamer@framepages {33}{33}}}
\@writefile{toc}{\beamer@sectionintoc {3}{Solutions}{34}{0}{3}}
\@writefile{nav}{\headcommand {\beamer@sectionpages {26}{33}}}
\@writefile{nav}{\headcommand {\beamer@subsectionpages {32}{33}}}
\@writefile{nav}{\headcommand {\sectionentry {3}{Solutions}{34}{Solutions}{0}}}
\newlabel{sec:Solutions}{{3}{34}{Solutions}{Doc-Start}{}}
\@writefile{snm}{\beamer@slide {sec:Solutions}{34}}
\@writefile{toc}{\beamer@subsectionintoc {3}{1}{Normalization }{34}{0}{3}}
\@writefile{nav}{\headcommand {\beamer@subsectionpages {34}{33}}}
\@writefile{nav}{\headcommand {\beamer@subsectionentry {0}{3}{1}{34}{Normalization }}}
\newlabel{sec:Normalization}{{1}{34}{Normalization}{Doc-Start}{}}
\@writefile{snm}{\beamer@slide {sec:Normalization}{34}}
\newlabel{norm_0<1>}{{34}{34}{Normalization}{Doc-Start}{}}
\@writefile{snm}{\beamer@slide {norm_0<1>}{34}}
\newlabel{norm_0}{{34}{34}{Normalization}{Doc-Start}{}}
\@writefile{snm}{\beamer@slide {norm_0}{34}}
\newlabel{fig:reccinv-1}{{34}{34}{Normalization}{Doc-Start}{}}
\@writefile{snm}{\beamer@slide {fig:reccinv-1}{34}}
\@writefile{nav}{\headcommand {\slideentry {3}{1}{1}{34/34}{Normalization }{0}}}
\@writefile{nav}{\headcommand {\beamer@framepages {34}{34}}}
\newlabel{norm_1<1>}{{35}{35}{Normalization}{Doc-Start}{}}
\@writefile{snm}{\beamer@slide {norm_1<1>}{35}}
\newlabel{norm_1}{{35}{35}{Normalization}{Doc-Start}{}}
\@writefile{snm}{\beamer@slide {norm_1}{35}}
\newlabel{fig:totalcomp0}{{35}{35}{Normalization}{Doc-Start}{}}
\@writefile{snm}{\beamer@slide {fig:totalcomp0}{35}}
\@writefile{nav}{\headcommand {\slideentry {3}{1}{2}{35/35}{Normalization }{0}}}
\@writefile{nav}{\headcommand {\beamer@framepages {35}{35}}}
\newlabel{setup2_0<1>}{{36}{36}{Normalization}{Doc-Start}{}}
\@writefile{snm}{\beamer@slide {setup2_0<1>}{36}}
\newlabel{setup2_0}{{36}{36}{Normalization}{Doc-Start}{}}
\@writefile{snm}{\beamer@slide {setup2_0}{36}}
\newlabel{fig:history903}{{36}{36}{Normalization}{Doc-Start}{}}
\@writefile{snm}{\beamer@slide {fig:history903}{36}}
\@writefile{nav}{\headcommand {\slideentry {3}{1}{3}{36/36}{Normalization }{0}}}
\@writefile{nav}{\headcommand {\beamer@framepages {36}{36}}}
\newlabel{result2_0<1>}{{37}{37}{Normalization}{Doc-Start}{}}
\@writefile{snm}{\beamer@slide {result2_0<1>}{37}}
\newlabel{result2_0}{{37}{37}{Normalization}{Doc-Start}{}}
\@writefile{snm}{\beamer@slide {result2_0}{37}}
\newlabel{fig:drtop2tag}{{37}{37}{Normalization}{Doc-Start}{}}
\@writefile{snm}{\beamer@slide {fig:drtop2tag}{37}}
\@writefile{nav}{\headcommand {\slideentry {3}{1}{4}{37/37}{Normalization }{0}}}
\@writefile{nav}{\headcommand {\beamer@framepages {37}{37}}}
\newlabel{normplus_0<1>}{{38}{38}{Normalization}{Doc-Start}{}}
\@writefile{snm}{\beamer@slide {normplus_0<1>}{38}}
\newlabel{normplus_0}{{38}{38}{Normalization}{Doc-Start}{}}
\@writefile{snm}{\beamer@slide {normplus_0}{38}}
\newlabel{fig:aucfeat677}{{38}{38}{Normalization}{Doc-Start}{}}
\@writefile{snm}{\beamer@slide {fig:aucfeat677}{38}}
\@writefile{nav}{\headcommand {\slideentry {3}{1}{5}{38/38}{Normalization }{0}}}
\@writefile{nav}{\headcommand {\beamer@framepages {38}{38}}}
\newlabel{normplus_1<1>}{{39}{39}{Normalization}{Doc-Start}{}}
\@writefile{snm}{\beamer@slide {normplus_1<1>}{39}}
\newlabel{normplus_1}{{39}{39}{Normalization}{Doc-Start}{}}
\@writefile{snm}{\beamer@slide {normplus_1}{39}}
\newlabel{fig:aucfeat534}{{39}{39}{Normalization}{Doc-Start}{}}
\@writefile{snm}{\beamer@slide {fig:aucfeat534}{39}}
\@writefile{nav}{\headcommand {\slideentry {3}{1}{6}{39/39}{Normalization }{0}}}
\@writefile{nav}{\headcommand {\beamer@framepages {39}{39}}}
\@writefile{toc}{\beamer@subsectionintoc {3}{2}{OneOff networks }{40}{0}{3}}
\@writefile{nav}{\headcommand {\beamer@subsectionpages {34}{39}}}
\@writefile{nav}{\headcommand {\beamer@subsectionentry {0}{3}{2}{40}{OneOff networks }}}
\newlabel{sec:OneOff networks}{{2}{40}{OneOff networks}{Doc-Start}{}}
\@writefile{snm}{\beamer@slide {sec:OneOff networks}{40}}
\newlabel{oo_0<1>}{{40}{40}{OneOff networks}{Doc-Start}{}}
\@writefile{snm}{\beamer@slide {oo_0<1>}{40}}
\newlabel{oo_0}{{40}{40}{OneOff networks}{Doc-Start}{}}
\@writefile{snm}{\beamer@slide {oo_0}{40}}
\newlabel{fig:toosephist}{{40}{40}{OneOff networks}{Doc-Start}{}}
\@writefile{snm}{\beamer@slide {fig:toosephist}{40}}
\@writefile{nav}{\headcommand {\slideentry {3}{2}{1}{40/40}{OneOff networks }{0}}}
\@writefile{nav}{\headcommand {\beamer@framepages {40}{40}}}
\newlabel{setup2_0<1>}{{41}{41}{OneOff networks}{Doc-Start}{}}
\@writefile{snm}{\beamer@slide {setup2_0<1>}{41}}
\newlabel{setup2_0}{{41}{41}{OneOff networks}{Doc-Start}{}}
\@writefile{snm}{\beamer@slide {setup2_0}{41}}
\@writefile{nav}{\headcommand {\slideentry {3}{2}{2}{41/41}{OneOff networks }{0}}}
\@writefile{nav}{\headcommand {\beamer@framepages {41}{41}}}
\newlabel{results_0<1>}{{42}{42}{OneOff networks}{Doc-Start}{}}
\@writefile{snm}{\beamer@slide {results_0<1>}{42}}
\newlabel{results_0}{{42}{42}{OneOff networks}{Doc-Start}{}}
\@writefile{snm}{\beamer@slide {results_0}{42}}
\newlabel{fig:dstoptagging}{{42}{42}{OneOff networks}{Doc-Start}{}}
\@writefile{snm}{\beamer@slide {fig:dstoptagging}{42}}
\@writefile{nav}{\headcommand {\slideentry {3}{2}{3}{42/42}{OneOff networks }{0}}}
\@writefile{nav}{\headcommand {\beamer@framepages {42}{42}}}
\newlabel{scale2_0<1>}{{43}{43}{OneOff networks}{Doc-Start}{}}
\@writefile{snm}{\beamer@slide {scale2_0<1>}{43}}
\newlabel{scale2_0}{{43}{43}{OneOff networks}{Doc-Start}{}}
\@writefile{snm}{\beamer@slide {scale2_0}{43}}
\newlabel{fig:simpledraw1583}{{43}{43}{OneOff networks}{Doc-Start}{}}
\@writefile{snm}{\beamer@slide {fig:simpledraw1583}{43}}
\@writefile{nav}{\headcommand {\slideentry {3}{2}{4}{43/43}{OneOff networks }{0}}}
\@writefile{nav}{\headcommand {\beamer@framepages {43}{43}}}
\newlabel{scale2_1<1>}{{44}{44}{OneOff networks}{Doc-Start}{}}
\@writefile{snm}{\beamer@slide {scale2_1<1>}{44}}
\newlabel{scale2_1}{{44}{44}{OneOff networks}{Doc-Start}{}}
\@writefile{snm}{\beamer@slide {scale2_1}{44}}
\newlabel{fig:drscale}{{44}{44}{OneOff networks}{Doc-Start}{}}
\@writefile{snm}{\beamer@slide {fig:drscale}{44}}
\@writefile{nav}{\headcommand {\slideentry {3}{2}{5}{44/44}{OneOff networks }{0}}}
\@writefile{nav}{\headcommand {\beamer@framepages {44}{44}}}
\newlabel{scale2_2<1>}{{45}{45}{OneOff networks}{Doc-Start}{}}
\@writefile{snm}{\beamer@slide {scale2_2<1>}{45}}
\newlabel{scale2_2}{{45}{45}{OneOff networks}{Doc-Start}{}}
\@writefile{snm}{\beamer@slide {scale2_2}{45}}
\newlabel{fig:dsscale}{{45}{45}{OneOff networks}{Doc-Start}{}}
\@writefile{snm}{\beamer@slide {fig:dsscale}{45}}
\@writefile{nav}{\headcommand {\slideentry {3}{2}{6}{45/45}{OneOff networks }{0}}}
\@writefile{nav}{\headcommand {\beamer@framepages {45}{45}}}
\@writefile{toc}{\beamer@sectionintoc {4}{Conclusion}{46}{0}{4}}
\@writefile{nav}{\headcommand {\beamer@sectionpages {34}{45}}}
\@writefile{nav}{\headcommand {\beamer@subsectionpages {40}{45}}}
\@writefile{nav}{\headcommand {\sectionentry {4}{Conclusion}{46}{Conclusion}{0}}}
\newlabel{sec:Conclusion}{{4}{46}{Conclusion}{Doc-Start}{}}
\@writefile{snm}{\beamer@slide {sec:Conclusion}{46}}
\@writefile{toc}{\beamer@subsectionintoc {4}{1}{other Datasets }{46}{0}{4}}
\@writefile{nav}{\headcommand {\beamer@subsectionpages {46}{45}}}
\@writefile{nav}{\headcommand {\beamer@subsectionentry {0}{4}{1}{46}{other Datasets }}}
\newlabel{sec:other Datasets}{{1}{46}{other Datasets}{Doc-Start}{}}
\@writefile{snm}{\beamer@slide {sec:other Datasets}{46}}
\newlabel{odata<1>}{{46}{46}{other Datasets}{Doc-Start}{}}
\@writefile{snm}{\beamer@slide {odata<1>}{46}}
\newlabel{odata}{{46}{46}{other Datasets}{Doc-Start}{}}
\@writefile{snm}{\beamer@slide {odata}{46}}
\@writefile{nav}{\headcommand {\slideentry {4}{1}{1}{46/46}{other Datasets }{0}}}
\@writefile{nav}{\headcommand {\beamer@framepages {46}{46}}}
\newlabel{data_0<1>}{{47}{47}{other Datasets}{Doc-Start}{}}
\@writefile{snm}{\beamer@slide {data_0<1>}{47}}
\newlabel{data_0}{{47}{47}{other Datasets}{Doc-Start}{}}
\@writefile{snm}{\beamer@slide {data_0}{47}}
\newlabel{fig:crossroc}{{47}{47}{other Datasets}{Doc-Start}{}}
\@writefile{snm}{\beamer@slide {fig:crossroc}{47}}
\@writefile{nav}{\headcommand {\slideentry {4}{1}{2}{47/47}{other Datasets }{0}}}
\@writefile{nav}{\headcommand {\beamer@framepages {47}{47}}}
\newlabel{data_1<1>}{{48}{48}{other Datasets}{Doc-Start}{}}
\@writefile{snm}{\beamer@slide {data_1<1>}{48}}
\newlabel{data_1}{{48}{48}{other Datasets}{Doc-Start}{}}
\@writefile{snm}{\beamer@slide {data_1}{48}}
\newlabel{fig:crosssep}{{48}{48}{other Datasets}{Doc-Start}{}}
\@writefile{snm}{\beamer@slide {fig:crosssep}{48}}
\@writefile{nav}{\headcommand {\slideentry {4}{1}{3}{48/48}{other Datasets }{0}}}
\@writefile{nav}{\headcommand {\beamer@framepages {48}{48}}}
\@writefile{toc}{\beamer@subsectionintoc {4}{2}{Conclusion }{49}{0}{4}}
\@writefile{nav}{\headcommand {\beamer@subsectionpages {46}{48}}}
\@writefile{nav}{\headcommand {\beamer@subsectionentry {0}{4}{2}{49}{Conclusion }}}
\newlabel{sec:Conclusion}{{2}{49}{Conclusion}{Doc-Start}{}}
\@writefile{snm}{\beamer@slide {sec:Conclusion}{49}}
\newlabel{conclude_0<1>}{{49}{49}{Conclusion}{Doc-Start}{}}
\@writefile{snm}{\beamer@slide {conclude_0<1>}{49}}
\newlabel{conclude_0}{{49}{49}{Conclusion}{Doc-Start}{}}
\@writefile{snm}{\beamer@slide {conclude_0}{49}}
\@writefile{nav}{\headcommand {\slideentry {4}{2}{1}{49/49}{Conclusion }{0}}}
\@writefile{nav}{\headcommand {\beamer@framepages {49}{49}}}
\newlabel{grapa<1>}{{50}{50}{Conclusion}{Doc-Start}{}}
\@writefile{snm}{\beamer@slide {grapa<1>}{50}}
\newlabel{grapa}{{50}{50}{Conclusion}{Doc-Start}{}}
\@writefile{snm}{\beamer@slide {grapa}{50}}
\newlabel{fig:grapadoc}{{50}{50}{Conclusion}{Doc-Start}{}}
\@writefile{snm}{\beamer@slide {fig:grapadoc}{50}}
\@writefile{nav}{\headcommand {\slideentry {4}{2}{2}{50/50}{Conclusion }{0}}}
\@writefile{nav}{\headcommand {\beamer@framepages {50}{50}}}
\@writefile{toc}{\beamer@subsectionintoc {4}{3}{Outlook }{51}{0}{4}}
\@writefile{nav}{\headcommand {\beamer@subsectionpages {49}{50}}}
\@writefile{nav}{\headcommand {\beamer@subsectionentry {0}{4}{3}{51}{Outlook }}}
\newlabel{sec:Outlook}{{3}{51}{Outlook}{Doc-Start}{}}
\@writefile{snm}{\beamer@slide {sec:Outlook}{51}}
\newlabel{next_0<1>}{{51}{51}{Outlook}{Doc-Start}{}}
\@writefile{snm}{\beamer@slide {next_0<1>}{51}}
\newlabel{next_0}{{51}{51}{Outlook}{Doc-Start}{}}
\@writefile{snm}{\beamer@slide {next_0}{51}}
\@writefile{nav}{\headcommand {\slideentry {4}{3}{1}{51/51}{Outlook }{0}}}
\@writefile{nav}{\headcommand {\beamer@framepages {51}{51}}}
\global\@namedef{mainendframenumber}{51}
\@writefile{nav}{\headcommand {\gdef \insertmainframenumber {51}}}
\@writefile{nav}{\headcommand {\partentry {Anhang}{1}}}
\@writefile{nav}{\headcommand {\beamer@partpages {1}{51}}}
\@writefile{nav}{\headcommand {\beamer@sectionpages {46}{51}}}
\@writefile{nav}{\headcommand {\beamer@subsectionpages {51}{51}}}
\@writefile{nav}{\headcommand {\beamer@appendixpages {52}}}
\@writefile{toc}{\beamer@sectionintoc {5}{Backup}{52}{1}{5}}
\@writefile{nav}{\headcommand {\beamer@sectionpages {52}{51}}}
\@writefile{nav}{\headcommand {\beamer@subsectionpages {52}{51}}}
\@writefile{nav}{\headcommand {\sectionentry {5}{Backup}{52}{Backup}{1}}}
\newlabel{sec:Backup}{{5}{52}{Backup}{Doc-Start}{}}
\@writefile{snm}{\beamer@slide {sec:Backup}{52}}
\@writefile{toc}{\beamer@subsectionintoc {5}{1}{Normalization }{52}{1}{5}}
\@writefile{nav}{\headcommand {\beamer@subsectionpages {52}{51}}}
\@writefile{nav}{\headcommand {\beamer@subsectionentry {1}{5}{1}{52}{Normalization }}}
\newlabel{sec:Normalization}{{1}{52}{Normalization}{Doc-Start}{}}
\@writefile{snm}{\beamer@slide {sec:Normalization}{52}}
\newlabel{Normalization<1>}{{1}{52}{Normalization}{Doc-Start}{}}
\@writefile{snm}{\beamer@slide {Normalization<1>}{52}}
\newlabel{Normalization}{{1}{52}{Normalization}{Doc-Start}{}}
\@writefile{snm}{\beamer@slide {Normalization}{52}}
\@writefile{nav}{\headcommand {\slideentry {5}{1}{1}{52/52}{Normalization }{1}}}
\@writefile{nav}{\headcommand {\beamer@framepages {52}{52}}}
\@writefile{toc}{\beamer@subsectionintoc {5}{2}{Datasetups }{53}{1}{5}}
\@writefile{nav}{\headcommand {\beamer@subsectionpages {52}{52}}}
\@writefile{nav}{\headcommand {\beamer@subsectionentry {1}{5}{2}{53}{Datasetups }}}
\newlabel{sec:Datasetups}{{2}{53}{Datasetups}{Doc-Start}{}}
\@writefile{snm}{\beamer@slide {sec:Datasetups}{53}}
\newlabel{Ligth Dark Matter<1>}{{2}{53}{Datasetups}{Doc-Start}{}}
\@writefile{snm}{\beamer@slide {Ligth Dark Matter<1>}{53}}
\newlabel{Ligth Dark Matter}{{2}{53}{Datasetups}{Doc-Start}{}}
\@writefile{snm}{\beamer@slide {Ligth Dark Matter}{53}}
\@writefile{nav}{\headcommand {\slideentry {5}{2}{1}{53/53}{Datasetups }{1}}}
\@writefile{nav}{\headcommand {\beamer@framepages {53}{53}}}
\newlabel{Quarks and Gluons<1>}{{3}{54}{Datasetups}{Doc-Start}{}}
\@writefile{snm}{\beamer@slide {Quarks and Gluons<1>}{54}}
\newlabel{Quarks and Gluons}{{3}{54}{Datasetups}{Doc-Start}{}}
\@writefile{snm}{\beamer@slide {Quarks and Gluons}{54}}
\@writefile{nav}{\headcommand {\slideentry {5}{2}{2}{54/54}{Datasetups }{1}}}
\@writefile{nav}{\headcommand {\beamer@framepages {54}{54}}}
\newlabel{Leptons<1>}{{4}{55}{Datasetups}{Doc-Start}{}}
\@writefile{snm}{\beamer@slide {Leptons<1>}{55}}
\newlabel{Leptons}{{4}{55}{Datasetups}{Doc-Start}{}}
\@writefile{snm}{\beamer@slide {Leptons}{55}}
\@writefile{nav}{\headcommand {\slideentry {5}{2}{3}{55/55}{Datasetups }{1}}}
\@writefile{nav}{\headcommand {\beamer@framepages {55}{55}}}
\@writefile{toc}{\beamer@subsectionintoc {5}{3}{C addition }{56}{1}{5}}
\@writefile{nav}{\headcommand {\beamer@subsectionpages {53}{55}}}
\@writefile{nav}{\headcommand {\beamer@subsectionentry {1}{5}{3}{56}{C addition }}}
\newlabel{sec:C addition}{{3}{56}{C addition}{Doc-Start}{}}
\@writefile{snm}{\beamer@slide {sec:C addition}{56}}
\newlabel{fig:adda}{{5}{56}{C addition}{Doc-Start}{}}
\@writefile{snm}{\beamer@slide {fig:adda}{56}}
\@writefile{nav}{\headcommand {\slideentry {5}{3}{1}{56/56}{C addition }{1}}}
\@writefile{nav}{\headcommand {\beamer@framepages {56}{56}}}
\newlabel{fig:abc}{{4}{57}{C addition}{Doc-Start}{}}
\@writefile{snm}{\beamer@slide {fig:abc}{57}}
\@writefile{nav}{\headcommand {\slideentry {5}{3}{2}{57/57}{C addition }{1}}}
\@writefile{nav}{\headcommand {\beamer@framepages {57}{57}}}
\@writefile{nav}{\headcommand {\slideentry {5}{3}{3}{58/58}{C addition }{1}}}
\@writefile{nav}{\headcommand {\beamer@framepages {58}{58}}}
\@writefile{nav}{\headcommand {\slideentry {5}{3}{4}{59/59}{C addition }{1}}}
\@writefile{nav}{\headcommand {\beamer@framepages {59}{59}}}
\@writefile{nav}{\headcommand {\beamer@partpages {52}{59}}}
\@writefile{nav}{\headcommand {\beamer@subsectionpages {56}{59}}}
\@writefile{nav}{\headcommand {\beamer@sectionpages {52}{59}}}
\@writefile{nav}{\headcommand {\beamer@documentpages {59}}}
\@writefile{nav}{\headcommand {\gdef \inserttotalframenumber {8}}}
\global\@namedef{appendixtotalframenumber}{8}
\global\@namedef{inserttotalframenumber}{51}
\@writefile{nav}{\headcommand {\gdef \inserttotalframenumber {51}}}
\@writefile{nav}{\headcommand {\gdef \appendixtotalframenumber {8}}}
